-------------------------------------------------------------------------------
Test set: com.dummy.myerp.model.bean.comptabilite.JournalComptableTest
-------------------------------------------------------------------------------
Tests run: 2, Failures: 0, Errors: 0, Skipped: 0, Time elapsed: 0 s - in com.dummy.myerp.model.bean.comptabilite.JournalComptableTest
