-------------------------------------------------------------------------------
Test set: com.dummy.myerp.model.bean.comptabilite.EcritureComptableTest
-------------------------------------------------------------------------------
Tests run: 5, Failures: 0, Errors: 0, Skipped: 0, Time elapsed: 0.012 s - in com.dummy.myerp.model.bean.comptabilite.EcritureComptableTest
