C:\Users\lauri\IdeaProjects\myerp\myerp-business\src\test-business\java\com\dummy\myerp\business\SpringRegistry.java
C:\Users\lauri\IdeaProjects\myerp\myerp-business\src\test-business\java\com\dummy\myerp\business\BusinessTestCase.java
C:\Users\lauri\IdeaProjects\myerp\myerp-business\src\test\java\com\dummy\myerp\business\impl\manager\ComptabiliteManagerTest.java
C:\Users\lauri\IdeaProjects\myerp\myerp-business\src\test-business\java\com\dummy\myerp\business\TestInitSpring.java
C:\Users\lauri\IdeaProjects\myerp\myerp-business\src\test-business\java\com\dummy\myerp\business\impl\manager\ComptabiliteManagerIT.java
