GROUP,PACKAGE,CLASS,INSTRUCTION_MISSED,INSTRUCTION_COVERED,BRANCH_MISSED,BRANCH_COVERED,LINE_MISSED,LINE_COVERED,COMPLEXITY_MISSED,COMPLEXITY_COVERED,METHOD_MISSED,METHOD_COVERED
myerp-model,com.dummy.myerp.model.bean.comptabilite,LigneEcritureComptable,41,161,5,5,17,48,9,15,4,15
myerp-model,com.dummy.myerp.model.bean.comptabilite,JournalComptable,11,74,1,5,6,20,4,7,3,5
myerp-model,com.dummy.myerp.model.bean.comptabilite,SequenceEcritureComptable,42,63,0,10,12,19,2,14,2,9
myerp-model,com.dummy.myerp.model.bean.comptabilite,EcritureComptable,17,169,0,10,7,38,5,16,5,11
myerp-model,com.dummy.myerp.model.bean.comptabilite,CompteComptable,17,72,1,5,9,20,5,7,4,5
