-------------------------------------------------------------------------------
Test set: com.dummy.myerp.business.TestInitSpring
-------------------------------------------------------------------------------
Tests run: 1, Failures: 0, Errors: 1, Skipped: 0, Time elapsed: 0.427 s <<< FAILURE! - in com.dummy.myerp.business.TestInitSpring
testInit(com.dummy.myerp.business.TestInitSpring)  Time elapsed: 0.005 s  <<< ERROR!
java.lang.ExceptionInInitializerError
Caused by: org.springframework.beans.factory.BeanCreationException: Error creating bean with name 'BusinessProxy' defined in class path resource [applicationContext.xml]: Cannot resolve reference to bean 'DaoProxy' while setting constructor argument; nested exception is org.springframework.beans.factory.BeanCreationException: Error creating bean with name 'DaoProxy' defined in class path resource [com/dummy/myerp/consumer/applicationContext.xml]: Cannot resolve reference to bean 'ComptabiliteDaoImpl' while setting bean property 'comptabiliteDao'; nested exception is org.springframework.beans.factory.BeanCreationException: Error creating bean with name 'ComptabiliteDaoImpl' defined in class path resource [com/dummy/myerp/consumer/sqlContext.xml]: Error setting property values; nested exception is org.springframework.beans.NotWritablePropertyException: Invalid property 'SQLCreateDataBase' of bean class [com.dummy.myerp.consumer.dao.impl.db.dao.ComptabiliteDaoImpl]: Bean property 'SQLCreateDataBase' is not writable or has an invalid setter method. Does the parameter type of the setter match the return type of the getter?
Caused by: org.springframework.beans.factory.BeanCreationException: Error creating bean with name 'DaoProxy' defined in class path resource [com/dummy/myerp/consumer/applicationContext.xml]: Cannot resolve reference to bean 'ComptabiliteDaoImpl' while setting bean property 'comptabiliteDao'; nested exception is org.springframework.beans.factory.BeanCreationException: Error creating bean with name 'ComptabiliteDaoImpl' defined in class path resource [com/dummy/myerp/consumer/sqlContext.xml]: Error setting property values; nested exception is org.springframework.beans.NotWritablePropertyException: Invalid property 'SQLCreateDataBase' of bean class [com.dummy.myerp.consumer.dao.impl.db.dao.ComptabiliteDaoImpl]: Bean property 'SQLCreateDataBase' is not writable or has an invalid setter method. Does the parameter type of the setter match the return type of the getter?
Caused by: org.springframework.beans.factory.BeanCreationException: Error creating bean with name 'ComptabiliteDaoImpl' defined in class path resource [com/dummy/myerp/consumer/sqlContext.xml]: Error setting property values; nested exception is org.springframework.beans.NotWritablePropertyException: Invalid property 'SQLCreateDataBase' of bean class [com.dummy.myerp.consumer.dao.impl.db.dao.ComptabiliteDaoImpl]: Bean property 'SQLCreateDataBase' is not writable or has an invalid setter method. Does the parameter type of the setter match the return type of the getter?
Caused by: org.springframework.beans.NotWritablePropertyException: Invalid property 'SQLCreateDataBase' of bean class [com.dummy.myerp.consumer.dao.impl.db.dao.ComptabiliteDaoImpl]: Bean property 'SQLCreateDataBase' is not writable or has an invalid setter method. Does the parameter type of the setter match the return type of the getter?

