C:\Users\lauri\IdeaProjects\myerp\myerp-technical\src\main\java\com\dummy\myerp\technical\exception\FunctionalException.java
C:\Users\lauri\IdeaProjects\myerp\myerp-technical\src\main\java\com\dummy\myerp\technical\exception\NotFoundException.java
C:\Users\lauri\IdeaProjects\myerp\myerp-technical\src\main\java\com\dummy\myerp\technical\exception\TechnicalException.java
C:\Users\lauri\IdeaProjects\myerp\myerp-technical\src\main\java\com\dummy\myerp\technical\util\spring\NullFactoryBean.java
