C:\Users\lauri\IdeaProjects\myerp\myerp-business\src\main\java\com\dummy\myerp\business\impl\BusinessProxyImpl.java
C:\Users\lauri\IdeaProjects\myerp\myerp-business\src\main\java\com\dummy\myerp\business\contrat\manager\ComptabiliteManager.java
C:\Users\lauri\IdeaProjects\myerp\myerp-business\src\main\java\com\dummy\myerp\business\impl\AbstractBusinessManager.java
C:\Users\lauri\IdeaProjects\myerp\myerp-business\src\main\java\com\dummy\myerp\business\impl\manager\ComptabiliteManagerImpl.java
C:\Users\lauri\IdeaProjects\myerp\myerp-business\src\main\java\com\dummy\myerp\business\contrat\BusinessProxy.java
C:\Users\lauri\IdeaProjects\myerp\myerp-business\src\main\java\com\dummy\myerp\business\impl\TransactionManager.java
